MicroUnit1Slides.utf8
…
---
class: left, top
.center[
# Assessing Example Data (cont.)   
]

```r
# Lets inspect our tibble!
RawData 
```

```
## # A tibble: 249 x 4
##    Date                Athlete   `Left Leg Force` `Right Leg Force`
##    <dttm>              <chr>                <dbl>             <dbl>
##  1 2017-12-04 00:00:00 Gus Smith              294               297
##  2 2017-12-07 00:00:00 Gus Smith              310               315
##  3 2017-12-09 00:00:00 Gus Smith              349               360
##  4 2017-12-09 00:00:00 Gus Smith              433               412
##  5 2017-12-11 00:00:00 Gus Smith              303               307
##  6 2017-12-11 00:00:00 Gus Smith              474               457
##  7 2017-12-14 00:00:00 Gus Smith              345               354
##  8 2017-12-16 00:00:00 Gus Smith              325               336
##  9 2017-12-18 00:00:00 Gus Smith              358               395
## 10 2018-01-09 00:00:00 Gus Smith              366               373
## # ... with 239 more rows
```
…
```r
# Rename columns - make them tidier
colnames(RawData) <- c("Date", "Athlete", "LeftLeg", "RightLeg") 
```
--

```r
# Inspect tibble, with new column names...
RawData 
```

```
## # A tibble: 249 x 4
##    Date                Athlete   LeftLeg RightLeg
##    <dttm>              <chr>       <dbl>    <dbl>
##  1 2017-12-04 00:00:00 Gus Smith     294      297
##  2 2017-12-07 00:00:00 Gus Smith     310      315
##  3 2017-12-09 00:00:00 Gus Smith     349      360
##  4 2017-12-09 00:00:00 Gus Smith     433      412
##  5 2017-12-11 00:00:00 Gus Smith     303      307
##  6 2017-12-11 00:00:00 Gus Smith     474      457
##  7 2017-12-14 00:00:00 Gus Smith     345      354
##  8 2017-12-16 00:00:00 Gus Smith     325      336
##  9 2017-12-18 00:00:00 Gus Smith     358      395
## 10 2018-01-09 00:00:00 Gus Smith     366      373
## # ... with 239 more rows
```
---
class: left, top
.center[
# Tidying Example Data (cont.)   
]
Wish to change the name of one column only?

```r
# Rename only one column
RawData %>% 
  rename(Left = LeftLeg)
```

```
## # A tibble: 249 x 4
##    Date                Athlete    Left RightLeg
##    <dttm>              <chr>     <dbl>    <dbl>
##  1 2017-12-04 00:00:00 Gus Smith   294      297
##  2 2017-12-07 00:00:00 Gus Smith   310      315
##  3 2017-12-09 00:00:00 Gus Smith   349      360
##  4 2017-12-09 00:00:00 Gus Smith   433      412
##  5 2017-12-11 00:00:00 Gus Smith   303      307
##  6 2017-12-11 00:00:00 Gus Smith   474      457
##  7 2017-12-14 00:00:00 Gus Smith   345      354
##  8 2017-12-16 00:00:00 Gus Smith   325      336
##  9 2017-12-18 00:00:00 Gus Smith   358      395
## 10 2018-01-09 00:00:00 Gus Smith   366      373
## # ... with 239 more rows
```
…
```
## [1] "Date"     "Athlete"  "LeftLeg"  "RightLeg"
```

--

```r
# Inspect tibble
RawData 
```

```
## # A tibble: 249 x 4
##    Date                Athlete   LeftLeg RightLeg
##    <dttm>              <chr>       <dbl>    <dbl>
##  1 2017-12-04 00:00:00 Gus Smith     294      297
##  2 2017-12-07 00:00:00 Gus Smith     310      315
##  3 2017-12-09 00:00:00 Gus Smith     349      360
##  4 2017-12-09 00:00:00 Gus Smith     433      412
##  5 2017-12-11 00:00:00 Gus Smith     303      307
##  6 2017-12-11 00:00:00 Gus Smith     474      457
##  7 2017-12-14 00:00:00 Gus Smith     345      354
##  8 2017-12-16 00:00:00 Gus Smith     325      336
##  9 2017-12-18 00:00:00 Gus Smith     358      395
## 10 2018-01-09 00:00:00 Gus Smith     366      373
## # ... with 239 more rows
```
…
--

```r
# Inspect tibble
RawData 
```

```
## # A tibble: 249 x 4
##    Date                Athlete    Left Right
##    <dttm>              <chr>     <dbl> <dbl>
##  1 2017-12-04 00:00:00 Gus Smith   294   297
##  2 2017-12-07 00:00:00 Gus Smith   310   315
##  3 2017-12-09 00:00:00 Gus Smith   349   360
##  4 2017-12-09 00:00:00 Gus Smith   433   412
##  5 2017-12-11 00:00:00 Gus Smith   303   307
##  6 2017-12-11 00:00:00 Gus Smith   474   457
##  7 2017-12-14 00:00:00 Gus Smith   345   354
##  8 2017-12-16 00:00:00 Gus Smith   325   336
##  9 2017-12-18 00:00:00 Gus Smith   358   395
## 10 2018-01-09 00:00:00 Gus Smith   366   373
## # ... with 239 more rows
```
…
--

Example data problem = One variable (force in N) is spread across multiple (Left and Right) columns.

--

```r
# Closer inspection of data frame, to demonstrate "wide" format
RawData 
```

```
## # A tibble: 249 x 4
##    Date                Athlete    Left Right
##    <dttm>              <fct>     <dbl> <dbl>
##  1 2017-12-04 00:00:00 Gus Smith   294   297
##  2 2017-12-07 00:00:00 Gus Smith   310   315
##  3 2017-12-09 00:00:00 Gus Smith   349   360
##  4 2017-12-09 00:00:00 Gus Smith   433   412
##  5 2017-12-11 00:00:00 Gus Smith   303   307
##  6 2017-12-11 00:00:00 Gus Smith   474   457
##  7 2017-12-14 00:00:00 Gus Smith   345   354
##  8 2017-12-16 00:00:00 Gus Smith   325   336
##  9 2017-12-18 00:00:00 Gus Smith   358   395
## 10 2018-01-09 00:00:00 Gus Smith   366   373
## # ... with 239 more rows
```
…
```r
# Using the dplyr package, we move from a "wide" to a "long" format
RawData <- RawData %>% 
     pivot_longer(c(`Left`, `Right`), names_to = "Leg", values_to = "Force")
```

--

```r
# Observe our pivoting!
RawData 
```

```
## # A tibble: 498 x 4
##    Date                Athlete   Leg   Force
##    <dttm>              <fct>     <chr> <dbl>
##  1 2017-12-04 00:00:00 Gus Smith Left    294
##  2 2017-12-04 00:00:00 Gus Smith Right   297
##  3 2017-12-07 00:00:00 Gus Smith Left    310
##  4 2017-12-07 00:00:00 Gus Smith Right   315
##  5 2017-12-09 00:00:00 Gus Smith Left    349
##  6 2017-12-09 00:00:00 Gus Smith Right   360
##  7 2017-12-09 00:00:00 Gus Smith Left    433
##  8 2017-12-09 00:00:00 Gus Smith Right   412
##  9 2017-12-11 00:00:00 Gus Smith Left    303
## 10 2017-12-11 00:00:00 Gus Smith Right   307
## # ... with 488 more rows
```
…
```r
# Seperate each athlete's name (one column) into two (firstname and surname) columns
RawData <- RawData %>% 
  separate(Athlete, into = c("Firstname", "Surname"), sep = " ")
```
--

```r
# Observe our seperating!
RawData 
```

```
## # A tibble: 498 x 5
##    Date                Firstname Surname Leg   Force
##    <dttm>              <chr>     <chr>   <chr> <dbl>
##  1 2017-12-04 00:00:00 Gus       Smith   Left    294
##  2 2017-12-04 00:00:00 Gus       Smith   Right   297
##  3 2017-12-07 00:00:00 Gus       Smith   Left    310
##  4 2017-12-07 00:00:00 Gus       Smith   Right   315
##  5 2017-12-09 00:00:00 Gus       Smith   Left    349
##  6 2017-12-09 00:00:00 Gus       Smith   Right   360
##  7 2017-12-09 00:00:00 Gus       Smith   Left    433
##  8 2017-12-09 00:00:00 Gus       Smith   Right   412
##  9 2017-12-11 00:00:00 Gus       Smith   Left    303
## 10 2017-12-11 00:00:00 Gus       Smith   Right   307
## # ... with 488 more rows
```
…
```r
# Seperate each athlete's name (one column) into two (firstname and surname) columns
RawData <- RawData %>% 
  unite(Athlete, Firstname, Surname, sep = " ")
```
--

```r
# Observe our seperating!
RawData 
```

```
## # A tibble: 498 x 4
##    Date                Athlete   Leg   Force
##    <dttm>              <chr>     <chr> <dbl>
##  1 2017-12-04 00:00:00 Gus Smith Left    294
##  2 2017-12-04 00:00:00 Gus Smith Right   297
##  3 2017-12-07 00:00:00 Gus Smith Left    310
##  4 2017-12-07 00:00:00 Gus Smith Right   315
##  5 2017-12-09 00:00:00 Gus Smith Left    349
##  6 2017-12-09 00:00:00 Gus Smith Right   360
##  7 2017-12-09 00:00:00 Gus Smith Left    433
##  8 2017-12-09 00:00:00 Gus Smith Right   412
##  9 2017-12-11 00:00:00 Gus Smith Left    303
## 10 2017-12-11 00:00:00 Gus Smith Right   307
## # ... with 488 more rows
```
…
--

Solution = filter (again using lovely `tidyverse` tools) observations. For example, call out data for "Gus Smith" only

```r
# Filter data to show only Gus Smith
RawData %>% 
  filter(Athlete == "Gus Smith")
```

--

```
## # A tibble: 110 x 4
##    Date                Athlete   Leg   Force
##    <dttm>              <chr>     <chr> <dbl>
##  1 2017-12-04 00:00:00 Gus Smith Left    294
##  2 2017-12-04 00:00:00 Gus Smith Right   297
##  3 2017-12-07 00:00:00 Gus Smith Left    310
##  4 2017-12-07 00:00:00 Gus Smith Right   315
##  5 2017-12-09 00:00:00 Gus Smith Left    349
##  6 2017-12-09 00:00:00 Gus Smith Right   360
##  7 2017-12-09 00:00:00 Gus Smith Left    433
##  8 2017-12-09 00:00:00 Gus Smith Right   412
##  9 2017-12-11 00:00:00 Gus Smith Left    303
## 10 2017-12-11 00:00:00 Gus Smith Right   307
## # ... with 100 more rows
```
…
--

Solution = filter (again using lovely `tidyverse` tools) observations. For example, call out data for "Left" only

```r
# Filter data to show only Gus Smith
RawData %>% 
  filter(Leg == "Left")
```

--

```
## # A tibble: 249 x 4
##    Date                Athlete   Leg   Force
##    <dttm>              <chr>     <chr> <dbl>
##  1 2017-12-04 00:00:00 Gus Smith Left    294
##  2 2017-12-07 00:00:00 Gus Smith Left    310
##  3 2017-12-09 00:00:00 Gus Smith Left    349
##  4 2017-12-09 00:00:00 Gus Smith Left    433
##  5 2017-12-11 00:00:00 Gus Smith Left    303
##  6 2017-12-11 00:00:00 Gus Smith Left    474
##  7 2017-12-14 00:00:00 Gus Smith Left    345
##  8 2017-12-16 00:00:00 Gus Smith Left    325
##  9 2017-12-18 00:00:00 Gus Smith Left    358
## 10 2018-01-09 00:00:00 Gus Smith Left    366
## # ... with 239 more rows
```
…
Example data problem = I want to create a new column, whereby Force is expressed relative (N/ kg).

--

Solution = mutate (again using lovely `tidyverse` tools) to create a new column for relative force values.

```r
# Make Force data relative, for simplicity we assume all athletes are 80kg
RawData %>% 
  mutate(RelativeForce = Force/80)
```
--

```
## # A tibble: 498 x 5
##    Date                Athlete   Leg   Force RelativeForce
##    <dttm>              <chr>     <chr> <dbl>         <dbl>
##  1 2017-12-04 00:00:00 Gus Smith Left    294          3.68
##  2 2017-12-04 00:00:00 Gus Smith Right   297          3.71
##  3 2017-12-07 00:00:00 Gus Smith Left    310          3.88
##  4 2017-12-07 00:00:00 Gus Smith Right   315          3.94
##  5 2017-12-09 00:00:00 Gus Smith Left    349          4.36
##  6 2017-12-09 00:00:00 Gus Smith Right   360          4.5 
##  7 2017-12-09 00:00:00 Gus Smith Left    433          5.41
##  8 2017-12-09 00:00:00 Gus Smith Right   412          5.15
##  9 2017-12-11 00:00:00 Gus Smith Left    303          3.79
## 10 2017-12-11 00:00:00 Gus Smith Right   307          3.84
## # ... with 488 more rows
```
…
